
Cyrus IMAP 2.4.17-caldav-beta1 Release Notes
********************************************

Changes to the Cyrus IMAP Server since 2.4.17

* Added httpd service with CalDAV, CardDAV, RSS, and iSchedule
  modules

Cyrus IMAP 2.4-caldav Releases
