
Cyrus IMAP 2.5 Releases
***********************

* Cyrus IMAP 2.5.0 Release Notes

* Cyrus IMAP 2.5.1 Release Notes

* Cyrus IMAP 2.5.2 Release Notes

* Cyrus IMAP 2.5.3 Release Notes

* Cyrus IMAP 2.5.4 Release Notes

* Cyrus IMAP 2.5.5 Release Notes

* Cyrus IMAP 2.5.6 Release Notes

* Cyrus IMAP 2.5.7 Release Notes

* Cyrus IMAP 2.5.8 Release Notes

* Cyrus IMAP 2.5.9 Release Notes

* Cyrus IMAP 2.5.10 Release Notes

* Cyrus IMAP 2.5.11 Release Notes
